<svg xmlns="http://www.w3.org/2000/svg" width="52" height="52" viewBox="0 0 52 52">
  <g id="Groupe_26" data-name="Groupe 26" transform="translate(-155 -521)">
    <g id="Rectangle_4" data-name="Rectangle 4" transform="translate(155 521)" fill="none" stroke="#707070" stroke-width="1" opacity="0.35">
      <rect width="52" height="52" rx="13" stroke="none"/>
      <rect x="0.5" y="0.5" width="51" height="51" rx="12.5" fill="none"/>
    </g>
    <path id="facebook_f" d="M18.52,9.662H14.662V7.473c0-1.13.092-1.841,1.711-1.841h2.045V2.151a28.529,28.529,0,0,0-3-.151,4.788,4.788,0,0,0-5.137,5.143V9.662H7V14.04h3.284v9.852h4.378V14.037h3.356Z" transform="translate(168 534)" fill="#25287a"/>
  </g>
</svg>
