<svg xmlns="http://www.w3.org/2000/svg" width="26.354" height="26.904" viewBox="0 0 26.354 26.904">
  <g id="Groupe_34" data-name="Groupe 34" transform="translate(-155 -594)">
    <g id="Ellipse_16" data-name="Ellipse 16" transform="translate(155 594)" fill="none" stroke="#707070" stroke-width="1">
      <circle cx="10.046" cy="10.046" r="10.046" stroke="none"/>
      <circle cx="10.046" cy="10.046" r="9.546" fill="none"/>
    </g>
    <path id="Tracé_73" data-name="Tracé 73" d="M213,1826l9.486,9.486" transform="translate(-41.486 -1214.936)" fill="none" stroke="#707070" stroke-width="1"/>
  </g>
</svg>
