<svg xmlns="http://www.w3.org/2000/svg" width="52" height="52" viewBox="0 0 52 52">
  <g id="Groupe_29" data-name="Groupe 29" transform="translate(-245 -521)">
    <g id="Groupe_28" data-name="Groupe 28">
      <g id="Groupe_27" data-name="Groupe 27">
        <g id="Groupe_30" data-name="Groupe 30">
          <g id="Rectangle_5" data-name="Rectangle 5" transform="translate(245 521)" fill="none" stroke="#707070" stroke-width="1" opacity="0.35">
            <rect width="52" height="52" rx="13" stroke="none"/>
            <rect x="0.5" y="0.5" width="51" height="51" rx="12.5" fill="none"/>
          </g>
          <path id="twitter" d="M24,4.3a9.085,9.085,0,0,1-2.8.8,5.321,5.321,0,0,0,2.2-2.7,9.125,9.125,0,0,1-3.1,1.2A5.236,5.236,0,0,0,16.6,2a4.907,4.907,0,0,0-4.9,4.9A3.7,3.7,0,0,0,11.8,8,13.68,13.68,0,0,1,1.7,2.9,4.3,4.3,0,0,0,1,5.4,5.014,5.014,0,0,0,3.2,9.5,7.112,7.112,0,0,1,1,8.9V9a4.854,4.854,0,0,0,3.9,4.8,5.138,5.138,0,0,1-1.3.2,2.741,2.741,0,0,1-.9-.1,4.747,4.747,0,0,0,4.6,3.4,10,10,0,0,1-6.1,2.1A4.979,4.979,0,0,1,0,19.3a14.011,14.011,0,0,0,7.5,2.2,13.872,13.872,0,0,0,14-14V6.9A10.267,10.267,0,0,0,24,4.3" transform="translate(259 535)" fill="#56abee"/>
        </g>
      </g>
    </g>
  </g>
</svg>
